{
	"Ho_ten": "Phạm thị Phán",
	"Ma_so": "NV_126",
	"Ten_dang_nhap": "NV_126",
	"Mat_khau": "NV_126",
	"Gioi_tinh": "Nữ",
	"Don_vi": {
		"Ten": "Đơn vị B.4",
		"Ma_so": "DON_VI_B.4",
		"Chi_nhanh": {
			"Ten": "Chi nhánh B",
			"Ma_so": "CHI_NHANH_B"
		}
	},
	"Danh_sach_Don_xin_nghi": []
}