{
	"Ho_ten": "Huỳnh lý kim Hồng",
	"Ma_so": "NV_125",
	"Ten_dang_nhap": "NV_125",
	"Mat_khau": "NV_125",
	"Gioi_tinh": "Nam",
	"Don_vi": {
		"Ten": "Đơn vị B.4",
		"Ma_so": "DON_VI_B.4",
		"Chi_nhanh": {
			"Ten": "Chi nhánh B",
			"Ma_so": "CHI_NHANH_B"
		}
	},
	"Danh_sach_Don_xin_nghi": [
		{
			"Ngay_Nop_don": "2017-09-12T00:00:00",
			"Ngay_Bat_dau": "2017-12-03T00:00:00+07:00",
			"So_ngay": 1,
			"Ly_do": "Việc riêng",
			"Y_kien": {
				"Ngay": "2017-09-23T00:00:00",
				"Da_co_Y_kien": true,
				"Noi_dung": "Đồng ý cho nghỉ "
			},
			"Ma_so": "NV_125-1",
			"Nhan_vien": {
				"Ho_ten": "Huỳnh lý kim Hồng",
				"Ma_so": "NV_125"
			}
		}
	]
}